Min's 304 PS1 - Min's 304 PS1 website
…
## # A tibble: 1 x 10
##   title id    topics civic_issues excerpt dataset_category num_resources formats
##   <chr> <chr> <chr>  <chr>        <chr>   <chr>                    <int> <chr>  
## 1 Neig… fc4d… <NA>   <NA>         <NA>    <NA>                         1 <NA>   
## # … with 2 more variables: refresh_rate <chr>, last_refreshed <date>

## Simple feature collection with 140 features and 61 fields
## geometry type:  POLYGON
## dimension:      XY
## bbox:           xmin: -79.63923 ymin: 43.581 xmax: -79.1152 ymax: 43.85545
## CRS:            EPSG:4326
## # A tibble: 140 x 62
##    `_id` OBJECTID Neighbourhood Hood_ID Population Assault_2014 Assault_2015
##    <int>    <int> <chr>         <chr>        <int>        <int>        <int>
##  1     1       16 South Parkda… 085          21849          202          226
##  2     2       17 South Riverd… 070          27876          215          207
##  3     3       18 St.Andrew-Wi… 040          17812           53           41
##  4     4       19 Taylor-Massey 061          15683          127           92
##  5     5       20 Humber Summit 021          12416           76           89
##  6     6       21 Humbermede    022          15545          117          132
##  7     7       22 Centennial S… 133          13362           50           39
##  8     8       23 Church-Yonge… 075          31340          480          495
##  9     9       24 Clairlea-Bir… 120          26984          247          259
## 10    10       25 Cliffcrest    123          15935           79           97
## # … with 130 more rows, and 55 more variables: Assault_2016 <int>,
## #   Assault_2017 <int>, Assault_2018 <int>, Assault_2019 <int>,
## #   Assault_AVG <dbl>, Assault_CHG <dbl>, Assault_Rate_2019 <dbl>,
## #   AutoTheft_2014 <int>, AutoTheft_2015 <int>, AutoTheft_2016 <int>,
## #   AutoTheft_2017 <int>, AutoTheft_2018 <int>, AutoTheft_2019 <int>,
## #   AutoTheft_AVG <dbl>, AutoTheft_CHG <dbl>, AutoTheft_Rate_2019 <dbl>,
## #   BreakandEnter_2014 <int>, BreakandEnter_2015 <int>,
## #   BreakandEnter_2016 <int>, BreakandEnter_2017 <int>,
## #   BreakandEnter_2018 <int>, BreakandEnter_2019 <int>,
…
get all resources for this package

identify datastore resources; by default, Toronto Open Data sets datastore resource format to CSV for non-geospatial and GeoJSON for geospatial resources

load the first datastore resource as a sample

## Simple feature collection with 140 features and 61 fields
## geometry type:  POLYGON
## dimension:      XY
## bbox:           xmin: -79.63923 ymin: 43.581 xmax: -79.1152 ymax: 43.85545
## CRS:            EPSG:4326
## # A tibble: 140 x 62
##    `_id` OBJECTID Neighbourhood Hood_ID Population Assault_2014 Assault_2015
##    <int>    <int> <chr>         <chr>        <int>        <int>        <int>
##  1     1       16 South Parkda… 085          21849          202          226
##  2     2       17 South Riverd… 070          27876          215          207
##  3     3       18 St.Andrew-Wi… 040          17812           53           41
##  4     4       19 Taylor-Massey 061          15683          127           92
##  5     5       20 Humber Summit 021          12416           76           89
##  6     6       21 Humbermede    022          15545          117          132
##  7     7       22 Centennial S… 133          13362           50           39
##  8     8       23 Church-Yonge… 075          31340          480          495
##  9     9       24 Clairlea-Bir… 120          26984          247          259
## 10    10       25 Cliffcrest    123          15935           79           97
## # … with 130 more rows, and 55 more variables: Assault_2016 <int>,
## #   Assault_2017 <int>, Assault_2018 <int>, Assault_2019 <int>,
## #   Assault_AVG <dbl>, Assault_CHG <dbl>, Assault_Rate_2019 <dbl>,
## #   AutoTheft_2014 <int>, AutoTheft_2015 <int>, AutoTheft_2016 <int>,
## #   AutoTheft_2017 <int>, AutoTheft_2018 <int>, AutoTheft_2019 <int>,
## #   AutoTheft_AVG <dbl>, AutoTheft_CHG <dbl>, AutoTheft_Rate_2019 <dbl>,
## #   BreakandEnter_2014 <int>, BreakandEnter_2015 <int>,
## #   BreakandEnter_2016 <int>, BreakandEnter_2017 <int>,
## #   BreakandEnter_2018 <int>, BreakandEnter_2019 <int>,
…
## Simple feature collection with 140 features and 61 fields
## geometry type:  POLYGON
## dimension:      XY
## bbox:           xmin: -79.63923 ymin: 43.581 xmax: -79.1152 ymax: 43.85545
## CRS:            EPSG:4326
## # A tibble: 140 x 62
##    `_id` OBJECTID Neighbourhood Hood_ID Population Assault_2014 Assault_2015
##    <int>    <int> <chr>         <chr>        <int>        <int>        <int>
##  1     1       16 South Parkda… 085          21849          202          226
##  2     2       17 South Riverd… 070          27876          215          207
##  3     3       18 St.Andrew-Wi… 040          17812           53           41
##  4     4       19 Taylor-Massey 061          15683          127           92
##  5     5       20 Humber Summit 021          12416           76           89
##  6     6       21 Humbermede    022          15545          117          132
##  7     7       22 Centennial S… 133          13362           50           39
##  8     8       23 Church-Yonge… 075          31340          480          495
##  9     9       24 Clairlea-Bir… 120          26984          247          259
## 10    10       25 Cliffcrest    123          15935           79           97
## # … with 130 more rows, and 55 more variables: Assault_2016 <int>,
## #   Assault_2017 <int>, Assault_2018 <int>, Assault_2019 <int>,
## #   Assault_AVG <dbl>, Assault_CHG <dbl>, Assault_Rate_2019 <dbl>,
## #   AutoTheft_2014 <int>, AutoTheft_2015 <int>, AutoTheft_2016 <int>,
## #   AutoTheft_2017 <int>, AutoTheft_2018 <int>, AutoTheft_2019 <int>,
## #   AutoTheft_AVG <dbl>, AutoTheft_CHG <dbl>, AutoTheft_Rate_2019 <dbl>,
## #   BreakandEnter_2014 <int>, BreakandEnter_2015 <int>,
## #   BreakandEnter_2016 <int>, BreakandEnter_2017 <int>,
## #   BreakandEnter_2018 <int>, BreakandEnter_2019 <int>,
…
